project1
…
Wrangling

totaldat %>% group_by(Region) %>% summarize_if(is.numeric, c(mean = mean, 
    sd = sd, max_value = max, min_value = min, count = n_distinct)) %>% 
    pivot_longer(-1) %>% separate(name, into = c("Variable", 
    "Statistic"), sep = "_") %>% pivot_wider(names_from = "Region", 
    values_from = "value")

## # A tibble: 45 x 21
##    Variable Statistic Caribbean CentralAmerica CentralAsia EasternAfrica
##    <chr>    <chr>         <dbl>          <dbl>       <dbl>         <dbl>
##  1 Overall… mean        9.33e+1        33.1         69.6         132.   
##  2 Score    mean        4.97e+0         6.39         5.59          4.08 
##  3 GDP.per… mean        7.23e-1         0.883        0.803         0.350
##  4 Social.… mean        1.19e+0         1.33         1.42          0.879
##  5 Healthy… mean        6.86e-1         0.847        0.717         0.480
##  6 Freedom… mean        3.38e-1         0.488        0.466         0.357
##  7 Generos… mean        2.13e-1         0.149        0.248         0.224
##  8 Percept… mean        7.97e-2         0.0824       0.106         0.125
##  9 Surface… mean        2.91e+4    351941.      800904        424372.   
## 10 Overall… sd          4.76e+1        15.3         19.4          25.1  
## # … with 35 more rows, and 15 more variables: EasternAsia <dbl>,
## #   EasternEurope <dbl>, MiddleAfrica <dbl>, NorthernAfrica <dbl>,
## #   NorthernAmerica <dbl>, NorthernEurope <dbl>, Oceania <dbl>,
## #   `South-easternAsia` <dbl>, SouthAmerica <dbl>, SouthernAfrica <dbl>,
## #   SouthernAsia <dbl>, SouthernEurope <dbl>, WesternAfrica <dbl>,
## #   WesternAsia <dbl>, WesternEurope <dbl>

totaldat %>% select(-Score) %>% summarize_if(is.numeric, c(mean = mean, 
    sd = sd, max_value = max, min_value = min)) %>% pivot_longer(values_to = "Avg. Value for All Countries", 
    contains("_")) %>% separate(name, into = c("Variable", "Statistic"), 
    sep = "_")

## # A tibble: 32 x 3
##    Variable                     Statistic `Avg. Value for All Countries`
##    <chr>                        <chr>                              <dbl>
##  1 Overall.rank                 mean                              78.0  
##  2 GDP.per.capita               mean                               0.901
##  3 Social.support               mean                               1.21 
##  4 Healthy.life.expectancy      mean                               0.724
##  5 Freedom.to.make.life.choices mean                               0.398
##  6 Generosity                   mean                               0.184
##  7 Perceptions.of.corruption    mean                               0.114
##  8 Surface.area.(km2)           mean                          696432.   
##  9 Overall.rank                 sd                                46.2  
## 10 GDP.per.capita               sd                                 0.406
## # … with 22 more rows

totaldat %>% mutate(Score_Categories = case_when(Score > 4 ~ 
    "high", Score < 4 ~ "low")) %>% group_by(Region, Score_Categories) %>% 
    summarize(avg_Generosity = mean(Generosity, na.rm = T)) %>% 
    pivot_wider(names_from = "Score_Categories", values_from = "avg_Generosity") %>% 
    pivot_longer(-1, names_to = "Category", values_to = "Value")

## # A tibble: 38 x 3
## # Groups:   Region [19]
##    Region         Category  Value
##    <chr>          <chr>     <dbl>
##  1 Caribbean      high      0.11 
##  2 Caribbean      low       0.419
##  3 CentralAmerica high      0.149
##  4 CentralAmerica low      NA    
##  5 CentralAsia    high      0.248
##  6 CentralAsia    low      NA    
##  7 EasternAfrica  high      0.248
##  8 EasternAfrica  low       0.201
##  9 EasternAsia    high      0.121
## 10 EasternAsia    low      NA    
## # … with 28 more rows

totaldat %>% mutate_at(vars(Score:Generosity), list(z = scale))

## # A tibble: 134 x 17
##    Overall.rank Country.or.regi… Score GDP.per.capita Social.support
##           <dbl> <chr>            <dbl>          <dbl>          <dbl>
##  1            1 Finland           7.77           1.34           1.59
##  2            2 Denmark           7.6            1.38           1.57
##  3            3 Norway            7.55           1.49           1.58
##  4            4 Iceland           7.49           1.38           1.62
##  5            5 Netherlands       7.49           1.40           1.52
##  6            6 Switzerland       7.48           1.45           1.53
##  7            7 Sweden            7.34           1.39           1.49
##  8            8 New Zealand       7.31           1.30           1.56
##  9            9 Canada            7.28           1.36           1.50
## 10           10 Austria           7.25           1.38           1.48
## # … with 124 more rows, and 12 more variables: Healthy.life.expectancy <dbl>,
## #   Freedom.to.make.life.choices <dbl>, Generosity <dbl>,
## #   Perceptions.of.corruption <dbl>, Region <chr>, `Surface.area.(km2)` <dbl>,
## #   Score_z[,1] <dbl>, GDP.per.capita_z[,1] <dbl>, Social.support_z[,1] <dbl>,
## #   Healthy.life.expectancy_z[,1] <dbl>,
## #   Freedom.to.make.life.choices_z[,1] <dbl>, Generosity_z[,1] <dbl>
…
